…
```r
library(dplyr)
library(tidytext)
library(janeaustenr)

austen_bigrams <- austen_books() %>%
  unnest_tokens(bigram, text, token = "ngrams", n = 2)

austen_bigrams
```

```
## # A tibble: 725,049 x 2
##    book                bigram         
##    <fct>               <chr>          
##  1 Sense & Sensibility sense and      
##  2 Sense & Sensibility and sensibility
##  3 Sense & Sensibility sensibility by 
##  4 Sense & Sensibility by jane        
##  5 Sense & Sensibility jane austen    
##  6 Sense & Sensibility austen 1811    
##  7 Sense & Sensibility 1811 chapter   
##  8 Sense & Sensibility chapter 1      
##  9 Sense & Sensibility 1 the          
## 10 Sense & Sensibility the family     
## # ... with 725,039 more rows
```
…
### Counting and filtering n-grams

Our usual tidy tools apply equally well to n-gram analysis. We can examine the most common bigrams using dplyr's `count()`:


```r
austen_bigrams %>%
  count(bigram, sort = TRUE)
```

```
## # A tibble: 211,236 x 2
##    bigram       n
##    <chr>    <int>
##  1 of the    3017
##  2 to be     2787
##  3 in the    2368
##  4 it was    1781
##  5 i am      1545
##  6 she had   1472
##  7 of her    1445
##  8 to the    1387
##  9 she was   1377
## 10 had been  1299
## # ... with 211,226 more rows
```
…
bigrams_filtered <- bigrams_separated %>%
  filter(!word1 %in% stop_words$word) %>%
  filter(!word2 %in% stop_words$word)

# new bigram counts:
bigram_counts <- bigrams_filtered %>% 
  count(word1, word2, sort = TRUE)

bigram_counts
```

```
## # A tibble: 33,421 x 3
##    word1   word2         n
##    <chr>   <chr>     <int>
##  1 sir     thomas      287
##  2 miss    crawford    215
##  3 captain wentworth   170
##  4 miss    woodhouse   162
##  5 frank   churchill   132
##  6 lady    russell     118
##  7 lady    bertram     114
##  8 sir     walter      113
##  9 miss    fairfax     109
## 10 colonel brandon     108
## # ... with 33,411 more rows
```

We can see that names (whether first and last or with a salutation) are the most common pairs in Jane Austen books.

In other analyses, we may want to work with the recombined words. tidyr's `unite()` function is the inverse of `separate()`, and lets us recombine the columns into one. Thus, "separate/filter/count/unite" let us find the most common bigrams not containing stop-words.


```r
bigrams_united <- bigrams_filtered %>%
  unite(bigram, word1, word2, sep = " ")

bigrams_united
```

```
## # A tibble: 44,784 x 2
##    book                bigram                  
##    <fct>               <chr>                   
##  1 Sense & Sensibility jane austen             
##  2 Sense & Sensibility austen 1811             
##  3 Sense & Sensibility 1811 chapter            
##  4 Sense & Sensibility chapter 1               
##  5 Sense & Sensibility norland park            
##  6 Sense & Sensibility surrounding acquaintance
##  7 Sense & Sensibility late owner              
##  8 Sense & Sensibility advanced age            
##  9 Sense & Sensibility constant companion      
## 10 Sense & Sensibility happened ten            
## # ... with 44,774 more rows
```
In other analyses you may be interested in the most common trigrams, which are consecutive sequences of 3 words. We can find this by setting `n = 3`:


```r
austen_books() %>%
  unnest_tokens(trigram, text, token = "ngrams", n = 3) %>%
  separate(trigram, c("word1", "word2", "word3"), sep = " ") %>%
  filter(!word1 %in% stop_words$word,
         !word2 %in% stop_words$word,
         !word3 %in% stop_words$word) %>%
  count(word1, word2, word3, sort = TRUE)
```

```
## # A tibble: 8,757 x 4
##    word1     word2     word3         n
##    <chr>     <chr>     <chr>     <int>
##  1 dear      miss      woodhouse    23
##  2 miss      de        bourgh       18
##  3 lady      catherine de           14
##  4 catherine de        bourgh       13
##  5 poor      miss      taylor       11
##  6 sir       walter    elliot       11
##  7 ten       thousand  pounds       11
##  8 dear      sir       thomas       10
##  9 twenty    thousand  pounds        8
## 10 replied   miss      crawford      7
## # ... with 8,747 more rows
```

### Analyzing bigrams

This one-bigram-per-row format is helpful for exploratory analyses of the text. As a simple example, we might be interested in the most common "streets" mentioned in each book:


```r
bigrams_filtered %>%
  filter(word2 == "street") %>%
  count(book, word1, sort = TRUE)
```

```
## # A tibble: 34 x 3
##    book                word1           n
##    <fct>               <chr>       <int>
##  1 Sense & Sensibility berkeley       16
##  2 Sense & Sensibility harley         16
##  3 Northanger Abbey    pulteney       14
##  4 Northanger Abbey    milsom         11
##  5 Mansfield Park      wimpole        10
##  6 Pride & Prejudice   gracechurch     9
##  7 Sense & Sensibility conduit         6
##  8 Sense & Sensibility bond            5
##  9 Persuasion          milsom          5
## 10 Persuasion          rivers          4
## # ... with 24 more rows
```

A bigram can also be treated as a term in a document in the same way that we treated individual words. For example, we can look at the tf-idf (Chapter \@ref(tfidf)) of bigrams across Austen novels. These tf-idf values can be visualized within each book, just as we did for words (Figure \@ref(fig:bigramtfidf)).


```r
bigram_tf_idf <- bigrams_united %>%
  count(book, bigram) %>%
  bind_tf_idf(bigram, book, n) %>%
  arrange(desc(tf_idf))

bigram_tf_idf
```

```
## # A tibble: 36,217 x 6
##    book                bigram                n     tf   idf tf_idf
##    <fct>               <chr>             <int>  <dbl> <dbl>  <dbl>
##  1 Persuasion          captain wentworth   170 0.0299  1.79 0.0535
##  2 Mansfield Park      sir thomas          287 0.0287  1.79 0.0515
##  3 Mansfield Park      miss crawford       215 0.0215  1.79 0.0386
##  4 Persuasion          lady russell        118 0.0207  1.79 0.0371
##  5 Persuasion          sir walter          113 0.0198  1.79 0.0356
##  6 Emma                miss woodhouse      162 0.0170  1.79 0.0305
##  7 Northanger Abbey    miss tilney          82 0.0159  1.79 0.0286
##  8 Sense & Sensibility colonel brandon     108 0.0150  1.79 0.0269
##  9 Emma                frank churchill     132 0.0139  1.79 0.0248
## 10 Pride & Prejudice   lady catherine      100 0.0138  1.79 0.0247
## # ... with 36,207 more rows
```
…
### Using bigrams to provide context in sentiment analysis

Our sentiment analysis approach in Chapter \@ref(sentiment) simply counted the appearance of positive or negative words, according to a reference lexicon. One of the problems with this approach is that a word's context can matter nearly as much as its presence. For example, the words "happy" and "like" will be counted as positive, even in a sentence like "I'm not **happy** and I don't **like** it!"

Now that we have the data organized into bigrams, it's easy to tell how often words are preceded by a word like "not":


```r
bigrams_separated %>%
  filter(word1 == "not") %>%
  count(word1, word2, sort = TRUE)
```

```
## # A tibble: 1,246 x 3
##    word1 word2     n
##    <chr> <chr> <int>
##  1 not   be      610
##  2 not   to      355
##  3 not   have    327
##  4 not   know    252
##  5 not   a       189
##  6 not   think   176
##  7 not   been    160
##  8 not   the     147
##  9 not   at      129
## 10 not   in      118
## # ... with 1,236 more rows
```
…
The [igraph](http://igraph.org/) package has many powerful functions for manipulating and analyzing networks. One way to create an igraph object from tidy data is the `graph_from_data_frame()` function, which takes a data frame of edges with columns for "from", "to", and edge attributes (in this case `n`):


```r
library(igraph)

# original counts
bigram_counts
```

```
## # A tibble: 33,421 x 3
##    word1   word2         n
##    <chr>   <chr>     <int>
##  1 sir     thomas      287
##  2 miss    crawford    215
##  3 captain wentworth   170
##  4 miss    woodhouse   162
##  5 frank   churchill   132
##  6 lady    russell     118
##  7 lady    bertram     114
##  8 sir     walter      113
##  9 miss    fairfax     109
## 10 colonel brandon     108
## # ... with 33,411 more rows
```
…
